%YAML 1.1
%TAG !u! tag:unity3d.com,2011:
--- !u!114 &11400000
MonoBehaviour:
  m_ObjectHideFlags: 0
  m_CorrespondingSourceObject: {fileID: 0}
  m_PrefabInstance: {fileID: 0}
  m_PrefabAsset: {fileID: 0}
  m_GameObject: {fileID: 0}
  m_Enabled: 1
  m_EditorHideFlags: 0
  m_Script: {fileID: 11500000, guid: bc62b778e31e764499c54b5847a02053, type: 3}
  m_Name: Green Tile
  m_EditorClassIdentifier: 
  ID: 1
  Points: 10
  TileSprite: {fileID: 21300000, guid: 12bc64cb7c5248e439d23354a3c968d4, type: 3}
  OnMatchParticleSystemColor: {r: 0.03529412, g: 0.6862745, b: 0.06666667, a: 1}
