%YAML 1.1
%TAG !u! tag:unity3d.com,2011:
--- !u!114 &11400000
MonoBehaviour:
  m_ObjectHideFlags: 0
  m_CorrespondingSourceObject: {fileID: 0}
  m_PrefabInstance: {fileID: 0}
  m_PrefabAsset: {fileID: 0}
  m_GameObject: {fileID: 0}
  m_Enabled: 1
  m_EditorHideFlags: 0
  m_Script: {fileID: 11500000, guid: bc62b778e31e764499c54b5847a02053, type: 3}
  m_Name: Red Tile
  m_EditorClassIdentifier: 
  ID: 3
  Points: 10
  TileSprite: {fileID: 21300000, guid: b706484746e061b42b1ec3d0d9fe0a9c, type: 3}
  OnMatchParticleSystemColor: {r: 1, g: 0.49803925, b: 0.3372549, a: 1}
